%YAML 1.1
%TAG !u! tag:unity3d.com,2011:
--- !u!114 &11400000
MonoBehaviour:
  m_ObjectHideFlags: 0
  m_CorrespondingSourceObject: {fileID: 0}
  m_PrefabInstance: {fileID: 0}
  m_PrefabAsset: {fileID: 0}
  m_GameObject: {fileID: 0}
  m_Enabled: 1
  m_EditorHideFlags: 0
  m_Script: {fileID: 11500000, guid: bcb432e880ad794489af00c5b7be0d30, type: 3}
  m_Name: Narration_ProfessorReal
  m_EditorClassIdentifier: 
  _characterSprite: {fileID: -8221711337608900936, guid: 8c41cb7dbcdda0f41a99e7ecf6ea9d98, type: 3}
  _characterName: Professor Real
