%YAML 1.1
%TAG !u! tag:unity3d.com,2011:
--- !u!114 &11400000
MonoBehaviour:
  m_ObjectHideFlags: 0
  m_CorrespondingSourceObject: {fileID: 0}
  m_PrefabInstance: {fileID: 0}
  m_PrefabAsset: {fileID: 0}
  m_GameObject: {fileID: 0}
  m_Enabled: 1
  m_EditorHideFlags: 0
  m_Script: {fileID: 11500000, guid: 19f3b9bf176ce0d41b7db7664b41574b, type: 3}
  m_Name: Profile_ProTuang_Tutorial
  m_EditorClassIdentifier: 
  _unitName: Professor Tuang
  _unitSprite: {fileID: -1725223239925079985, guid: 8c41cb7dbcdda0f41a99e7ecf6ea9d98, type: 3}
  _stat:
    currentLevel: 1
    currentEXP: 0
    currentHP: -23
    currentIdea: 0
    currentLogic: 0
    currentStamina: 100
    requireEXP: 0
    maxAIStamina: 100
    vitality: 2
    intelligence: 0
    design: 50
    code: 0
    defence: 2
    maxHP: 100
    maxIdea: 0
    maxLogic: 0
    baseATK: 1
    baseDEF: 15
    skillPoint: 0
    _levelingstat: []
  _attackProfile:
  - {fileID: 11400000, guid: 675a1625d8a81b749bf937cdff64077b, type: 2}
  _skillProfile: []
  _startingDialogue: {fileID: 11400000, guid: 7af378d106f81684bbcabb3661e36f7f, type: 2}
  _introBattle: {fileID: 11400000, guid: 19732cf29b6684640ac354ed9e1347ff, type: 2}
  _reward:
    _rewardEXP: 25
