%YAML 1.1
%TAG !u! tag:unity3d.com,2011:
--- !u!114 &11400000
MonoBehaviour:
  m_ObjectHideFlags: 0
  m_CorrespondingSourceObject: {fileID: 0}
  m_PrefabInstance: {fileID: 0}
  m_PrefabAsset: {fileID: 0}
  m_GameObject: {fileID: 0}
  m_Enabled: 1
  m_EditorHideFlags: 0
  m_Script: {fileID: 11500000, guid: f378865af8c3958479e1b08265855571, type: 3}
  m_Name: Skill_Player_BasicHeal
  m_EditorClassIdentifier: 
  _attackName: Basic Heal
  _attackDescription: Heal 20% of your HP
  _attackIcon: {fileID: -2751823051412411062, guid: 449f726826366234590d99ecedbea6c2, type: 3}
  _attackAnim: {fileID: 7400000, guid: 21b9e2d556669544eaccc71603949edb, type: 2}
  _staminaCost: 0
  _ideaCost: 40
  _logicCost: 40
  _damage: 1
  _critRate: 5
  _heal: 1
  _isDesignSkill: 0
  _isCodeSkill: 0
  _healRate: 20
  _healAmount: 0
