%YAML 1.1
%TAG !u! tag:unity3d.com,2011:
--- !u!1001 &4870615642646957383
PrefabInstance:
  m_ObjectHideFlags: 0
  serializedVersion: 2
  m_Modification:
    m_TransformParent: {fileID: 0}
    m_Modifications:
    - target: {fileID: 4550101354261939544, guid: 92c78b550509aa74e9f8254edb285c12, type: 3}
      propertyPath: m_IsActive
      value: 1
      objectReference: {fileID: 0}
    - target: {fileID: 4550101354261939546, guid: 92c78b550509aa74e9f8254edb285c12, type: 3}
      propertyPath: m_Sprite
      value: 
      objectReference: {fileID: 2015149705903939346, guid: 7dbecaa50b046174cbe1d393dfddee01, type: 3}
    - target: {fileID: 4550101354551474648, guid: 92c78b550509aa74e9f8254edb285c12, type: 3}
      propertyPath: m_Camera
      value: 
      objectReference: {fileID: 0}
    - target: {fileID: 4550101355189270783, guid: 92c78b550509aa74e9f8254edb285c12, type: 3}
      propertyPath: m_Size.x
      value: 0.9
      objectReference: {fileID: 0}
    - target: {fileID: 4550101355189270783, guid: 92c78b550509aa74e9f8254edb285c12, type: 3}
      propertyPath: m_Size.y
      value: 1.25
      objectReference: {fileID: 0}
    - target: {fileID: 4550101356146800001, guid: 92c78b550509aa74e9f8254edb285c12, type: 3}
      propertyPath: m_Name
      value: A Door
      objectReference: {fileID: 0}
    - target: {fileID: 4550101356146800001, guid: 92c78b550509aa74e9f8254edb285c12, type: 3}
      propertyPath: m_IsActive
      value: 1
      objectReference: {fileID: 0}
    - target: {fileID: 4550101356146800002, guid: 92c78b550509aa74e9f8254edb285c12, type: 3}
      propertyPath: _sound
      value: 
      objectReference: {fileID: 8300000, guid: c266d43a55c25d347b99b9479f6029c2, type: 3}
    - target: {fileID: 4550101356146800002, guid: 92c78b550509aa74e9f8254edb285c12, type: 3}
      propertyPath: _isDoor
      value: 1
      objectReference: {fileID: 0}
    - target: {fileID: 4550101356146800002, guid: 92c78b550509aa74e9f8254edb285c12, type: 3}
      propertyPath: _destination
      value: 
      objectReference: {fileID: 0}
    - target: {fileID: 4550101356146800002, guid: 92c78b550509aa74e9f8254edb285c12, type: 3}
      propertyPath: _objectToMove
      value: 
      objectReference: {fileID: 0}
    - target: {fileID: 4550101356146800002, guid: 92c78b550509aa74e9f8254edb285c12, type: 3}
      propertyPath: _playerPointer
      value: 
      objectReference: {fileID: 0}
    - target: {fileID: 4550101356146800002, guid: 92c78b550509aa74e9f8254edb285c12, type: 3}
      propertyPath: _containDialogue
      value: 0
      objectReference: {fileID: 0}
    - target: {fileID: 4550101356146800002, guid: 92c78b550509aa74e9f8254edb285c12, type: 3}
      propertyPath: _objectInstruction
      value: Enter
      objectReference: {fileID: 0}
    - target: {fileID: 4550101356146800003, guid: 92c78b550509aa74e9f8254edb285c12, type: 3}
      propertyPath: m_RootOrder
      value: 0
      objectReference: {fileID: 0}
    - target: {fileID: 4550101356146800003, guid: 92c78b550509aa74e9f8254edb285c12, type: 3}
      propertyPath: m_LocalPosition.x
      value: 0.5
      objectReference: {fileID: 0}
    - target: {fileID: 4550101356146800003, guid: 92c78b550509aa74e9f8254edb285c12, type: 3}
      propertyPath: m_LocalPosition.y
      value: 13.5
      objectReference: {fileID: 0}
    - target: {fileID: 4550101356146800003, guid: 92c78b550509aa74e9f8254edb285c12, type: 3}
      propertyPath: m_LocalPosition.z
      value: 0
      objectReference: {fileID: 0}
    - target: {fileID: 4550101356146800003, guid: 92c78b550509aa74e9f8254edb285c12, type: 3}
      propertyPath: m_LocalRotation.w
      value: 1
      objectReference: {fileID: 0}
    - target: {fileID: 4550101356146800003, guid: 92c78b550509aa74e9f8254edb285c12, type: 3}
      propertyPath: m_LocalRotation.x
      value: -0
      objectReference: {fileID: 0}
    - target: {fileID: 4550101356146800003, guid: 92c78b550509aa74e9f8254edb285c12, type: 3}
      propertyPath: m_LocalRotation.y
      value: -0
      objectReference: {fileID: 0}
    - target: {fileID: 4550101356146800003, guid: 92c78b550509aa74e9f8254edb285c12, type: 3}
      propertyPath: m_LocalRotation.z
      value: -0
      objectReference: {fileID: 0}
    - target: {fileID: 4550101356146800003, guid: 92c78b550509aa74e9f8254edb285c12, type: 3}
      propertyPath: m_LocalEulerAnglesHint.x
      value: 0
      objectReference: {fileID: 0}
    - target: {fileID: 4550101356146800003, guid: 92c78b550509aa74e9f8254edb285c12, type: 3}
      propertyPath: m_LocalEulerAnglesHint.y
      value: 0
      objectReference: {fileID: 0}
    - target: {fileID: 4550101356146800003, guid: 92c78b550509aa74e9f8254edb285c12, type: 3}
      propertyPath: m_LocalEulerAnglesHint.z
      value: 0
      objectReference: {fileID: 0}
    - target: {fileID: 5360192152559345954, guid: 92c78b550509aa74e9f8254edb285c12, type: 3}
      propertyPath: m_LocalPosition.y
      value: -1
      objectReference: {fileID: 0}
    m_RemovedComponents: []
  m_SourcePrefab: {fileID: 100100000, guid: 92c78b550509aa74e9f8254edb285c12, type: 3}
