%YAML 1.1
%TAG !u! tag:unity3d.com,2011:
--- !u!114 &11400000
MonoBehaviour:
  m_ObjectHideFlags: 0
  m_CorrespondingSourceObject: {fileID: 0}
  m_PrefabInstance: {fileID: 0}
  m_PrefabAsset: {fileID: 0}
  m_GameObject: {fileID: 0}
  m_Enabled: 1
  m_EditorHideFlags: 0
  m_Script: {fileID: 11500000, guid: f378865af8c3958479e1b08265855571, type: 3}
  m_Name: Attack_ProfJ_DesignAttack
  m_EditorClassIdentifier: 
  _attackName: Normal Attack
  _attackDescription: This unit use the attack
  _attackIcon: {fileID: 21300000, guid: 7cb070573cf7d8c4cb253a6ce25e7233, type: 3}
  _attackAnim: {fileID: 7400000, guid: 51423f951afd83c4195155030af6bc85, type: 2}
  _staminaCost: 0
  _ideaCost: 0
  _logicCost: 0
  _damage: 20
  _critRate: 5
  _heal: 0
  _isDesignSkill: 1
  _isCodeSkill: 0
  _healRate: 0
  _healAmount: 0
